/home/sreekanth.bongunuri/workspace/NLK374/test/NewLook_Project/src/test/java/cucumberTestRunner/TestRunCucumber.java
/home/sreekanth.bongunuri/workspace/NLK374/test/NewLook_Project/src/test/java/testJourney/NavigationStepDefinition.java
/home/sreekanth.bongunuri/workspace/NLK374/test/NewLook_Project/src/test/java/testJourney/SmokePackStepDefinitions.java
/home/sreekanth.bongunuri/workspace/NLK374/test/NewLook_Project/src/test/java/testJourney/CountryPickerStepDefinitions.java
/home/sreekanth.bongunuri/workspace/NLK374/test/NewLook_Project/src/main/java/core/page/HomePage.java
/home/sreekanth.bongunuri/workspace/NLK374/test/NewLook_Project/src/main/java/core/page/LandingPage.java
/home/sreekanth.bongunuri/workspace/NLK374/test/NewLook_Project/src/test/java/utils/RandomGenerator.java
/home/sreekanth.bongunuri/workspace/NLK374/test/NewLook_Project/src/test/java/enums/PermittedCharacters.java
/home/sreekanth.bongunuri/workspace/NLK374/test/NewLook_Project/src/test/java/testJourney/HomePageStepDefinitions.java
/home/sreekanth.bongunuri/workspace/NLK374/test/NewLook_Project/src/test/java/testJourney/ShoppingCartStepDefinitions.java
/home/sreekanth.bongunuri/workspace/NLK374/test/NewLook_Project/src/main/java/core/page/LoginPage.java
/home/sreekanth.bongunuri/workspace/NLK374/test/NewLook_Project/src/main/java/core/page/StoreFinderPage.java
/home/sreekanth.bongunuri/workspace/NLK374/test/NewLook_Project/src/main/java/core/page/CheckOutPage.java
